<?xml version="1.0" encoding="UTF-8"?>
<svg width="160px" height="160px" viewBox="0 0 160 160" version="1.1" xmlns="http://www.w3.org/2000/svg" xmlns:xlink="http://www.w3.org/1999/xlink">
<!-- Generator: Sketch 51.3 (57544) - http://www.bohemiancoding.com/sketch -->
<title>Atoms / Icons / Favorit</title>
<desc>Created with Sketch.</desc>
<defs></defs>
<g id="Atoms-/-Icons-/-Favorit" stroke="none" stroke-width="1" fill="none" fill-rule="evenodd">
    <path d="M105.42487,57.0640481 C102.768744,57.0795256 100.402283,55.2873679 99.5532701,52.6173946 L85.8715998,8.45187239 C85.0125896,5.78905302 82.6529974,4 80,4 C77.3470026,4 74.9874104,5.78905302 74.1284002,8.45187239 L60.4467299,52.6173946 C59.5977174,55.2873679 57.2312562,57.0795256 54.5751302,57.0640481 L10.1588659,57.0640481 C7.51983354,57.0012259 5.14972535,58.7686159 4.31188705,61.4241409 C3.47404875,64.0796658 4.36371915,67.0045173 6.50667463,68.639653 L42.5509928,96.1123423 C44.6806444,97.7168014 45.5797767,100.603693 44.7704014,103.238313 L31.0325435,147.600537 C30.4421342,149.579432 30.7851521,151.738811 31.9542903,153.40315 C33.1234285,155.067489 34.9759165,156.033547 36.9322371,155.999109 C38.2368095,155.992659 39.5057788,155.54706 40.5563346,154.726508 L76.3478088,127.450521 C78.5321133,125.793567 81.4678867,125.793567 83.6521912,127.450521 L119.443665,154.726508 C120.494221,155.54706 121.76319,155.992659 123.067763,155.999109 C125.024084,156.033547 126.876571,155.067489 128.04571,153.40315 C129.214848,151.738811 129.557866,149.579432 128.967456,147.600537 L115.229599,103.238313 C114.420223,100.603693 115.319356,97.7168014 117.449007,96.1123423 L153.493325,68.639653 C155.636281,67.0045173 156.525951,64.0796658 155.688113,61.4241409 C154.850275,58.7686159 152.480166,57.0012259 149.841134,57.0640481 L105.42487,57.0640481 Z" id="Star" fill="#2E88F4"></path>
</g>
</svg>